[gd_scene load_steps=3 format=2]

[ext_resource path="res://Sprites/Buildings/Building0_Red.png" type="Texture" id=1]
[ext_resource path="res://Scripts/Buildings/Building.cs" type="Script" id=2]


[node name="Building0_Red" type="StaticBody2D"]
script = ExtResource( 2 )

[node name="Sprite" type="Sprite" parent="."]
scale = Vector2( 0.1, 0.1 )
texture = ExtResource( 1 )
offset = Vector2( 0, -245 )

[node name="CollisionPolygon2D" type="CollisionPolygon2D" parent="."]
polygon = PoolVector2Array( -46, 0, -25.6, -30.8, 46.8, 0, 26.4, 30.8 )

[node name="Area2D" type="Area2D" parent="."]

[node name="CollisionPolygon2D" type="CollisionPolygon2D" parent="Area2D"]
polygon = PoolVector2Array( -35.3316, -75.6647, -44.1511, -41.0169, -42.8912, -2.90425, 43.7284, 0.245552, 44.6734, -41.3318 )
[connection signal="body_entered" from="Area2D" to="." method="_on_Area2D_body_entered"]
[connection signal="body_exited" from="Area2D" to="." method="_on_Area2D_body_exited"]
