[gd_scene load_steps=3 format=2]

[ext_resource path="res://Scripts/Buildings/Building.cs" type="Script" id=1]
[ext_resource path="res://Sprites/Buildings/Building2_Red.png" type="Texture" id=2]

[node name="Building2_Red" type="StaticBody2D"]
script = ExtResource( 1 )

[node name="Sprite" type="Sprite" parent="."]
scale = Vector2( 0.075, 0.075 )
texture = ExtResource( 2 )
offset = Vector2( 0, -290 )

[node name="CollisionPolygon2D" type="CollisionPolygon2D" parent="."]
polygon = PoolVector2Array( 41, 0, 0, 41, -41, 0, 0, -41 )

[node name="Area2D" type="Area2D" parent="."]

[node name="CollisionPolygon2D" type="CollisionPolygon2D" parent="Area2D"]
polygon = PoolVector2Array( 0.693802, -81.9686, -39.647, -41.5885, -39.4801, 0.125221, 39.4187, -0.0288849, 39.6994, -41.8406, 19.2144, -81.9686 )
[connection signal="body_entered" from="Area2D" to="." method="_on_Area2D_body_entered"]
[connection signal="body_exited" from="Area2D" to="." method="_on_Area2D_body_exited"]