[gd_scene load_steps=3 format=2]

[ext_resource path="res://Sprites/Buildings/Farm.png" type="Texture" id=1]

[sub_resource type="RectangleShape2D" id=1]
extents = Vector2( 61.5, 12 )

[node name="Farm" type="StaticBody2D"]

[node name="Sprite" type="Sprite" parent="."]
scale = Vector2( 1.5, 1.5 )
texture = ExtResource( 1 )
centered = false
offset = Vector2( -41, -42 )

[node name="CollisionShape2D" type="CollisionShape2D" parent="."]
position = Vector2( 0, -12 )
shape = SubResource( 1 )
