[gd_scene load_steps=2 format=2]

[ext_resource path="res://Sprites/Walls/TopWall.png" type="Texture" id=1]

[node name="TopWall" type="StaticBody2D"]

[node name="Sprite" type="Sprite" parent="."]
texture = ExtResource( 1 )
centered = false
offset = Vector2( 0, -366 )

[node name="CollisionPolygon2D" type="CollisionPolygon2D" parent="."]
polygon = PoolVector2Array( 0, 0, 28, 0, 28, -86, 88, -205, 162, -279, 225, -321, 671, -321, 733, -279, 808, -205, 868, -86, 868, -0.814, 896, 0.077, 896, -112.977, 836, -230.75, 759.437, -308.027, 671, -365.669, 225, -365.892, 137.268, -307.85, 60, -232.078, 0, -112.016 )
